<svg width="71" height="27" viewBox="0 0 71 27" fill="none" xmlns="http://www.w3.org/2000/svg">
<path d="M3.15039 2.95508V12.3242H12.8008V14.4863H3.15039V26H0.882812V0.792969H15.0684V2.95508H3.15039ZM32.4883 20.1641C32.4883 21.0195 32.3242 21.8223 31.9961 22.5723C31.6797 23.3223 31.2402 23.9785 30.6777 24.541C30.1152 25.1035 29.459 25.5488 28.709 25.877C27.959 26.1934 27.1562 26.3516 26.3008 26.3516H24.5078C23.6523 26.3516 22.8438 26.1934 22.082 25.877C21.332 25.5488 20.6758 25.1035 20.1133 24.541C19.5508 23.9785 19.1055 23.3223 18.7773 22.5723C18.4609 21.8223 18.3027 21.0195 18.3027 20.1641V6.62891C18.3027 5.77344 18.4609 4.9707 18.7773 4.2207C19.1055 3.4707 19.5508 2.81445 20.1133 2.25195C20.6758 1.68945 21.332 1.25 22.082 0.933594C22.8438 0.605469 23.6523 0.441406 24.5078 0.441406H26.3008C27.1562 0.441406 27.959 0.605469 28.709 0.933594C29.459 1.25 30.1152 1.68945 30.6777 2.25195C31.2402 2.81445 31.6797 3.4707 31.9961 4.2207C32.3242 4.9707 32.4883 5.77344 32.4883 6.62891V20.1641ZM30.2207 6.62891C30.2207 6.06641 30.1152 5.54492 29.9043 5.06445C29.6934 4.57227 29.4062 4.14453 29.043 3.78125C28.6797 3.41797 28.252 3.13086 27.7598 2.91992C27.2793 2.70898 26.7578 2.60352 26.1953 2.60352H24.6133C24.0508 2.60352 23.5234 2.70898 23.0312 2.91992C22.5508 3.13086 22.123 3.41797 21.748 3.78125C21.3848 4.14453 21.0977 4.57227 20.8867 5.06445C20.6758 5.54492 20.5703 6.06641 20.5703 6.62891V20.1641C20.5703 20.7266 20.6758 21.2539 20.8867 21.7461C21.0977 22.2266 21.3848 22.6543 21.748 23.0293C22.123 23.3926 22.5508 23.6797 23.0312 23.8906C23.5234 24.1016 24.0508 24.207 24.6133 24.207H26.1953C26.7578 24.207 27.2793 24.1016 27.7598 23.8906C28.252 23.6797 28.6797 23.3926 29.043 23.0293C29.4062 22.6543 29.6934 22.2266 29.9043 21.7461C30.1152 21.2539 30.2207 20.7266 30.2207 20.1641V6.62891ZM49.75 26L42.9121 15.2422H39.8008V26H37.5332V0.792969H45.5312C46.3867 0.792969 47.1895 0.957031 47.9395 1.28516C48.6895 1.60156 49.3457 2.04102 49.9082 2.60352C50.4707 3.16602 50.9102 3.82813 51.2266 4.58984C51.5547 5.33984 51.7188 6.14258 51.7188 6.99805V9.03711C51.7188 9.89258 51.5547 10.7012 51.2266 11.4629C50.9102 12.2129 50.4707 12.8691 49.9082 13.4316C49.3457 13.9941 48.6895 14.4395 47.9395 14.7676C47.1895 15.084 46.3867 15.2422 45.5312 15.2422L52.3691 26H49.75ZM49.4512 6.99805C49.4512 6.43555 49.3457 5.91406 49.1348 5.43359C48.9238 4.94141 48.6367 4.51367 48.2734 4.15039C47.9102 3.77539 47.4824 3.48242 46.9902 3.27148C46.5098 3.06055 45.9883 2.95508 45.4258 2.95508H39.8008V13.0801H45.4258C45.9883 13.0801 46.5098 12.9746 46.9902 12.7637C47.4824 12.5527 47.9102 12.2656 48.2734 11.9023C48.6367 11.5273 48.9238 11.0996 49.1348 10.6191C49.3457 10.127 49.4512 9.59961 49.4512 9.03711V6.99805ZM70.5273 20.1641C70.5273 21.0195 70.3633 21.8223 70.0352 22.5723C69.7188 23.3223 69.2793 23.9785 68.7168 24.541C68.1543 25.1035 67.498 25.5488 66.748 25.877C65.998 26.1934 65.1953 26.3516 64.3398 26.3516H62.5469C61.6914 26.3516 60.8828 26.1934 60.1211 25.877C59.3711 25.5488 58.7148 25.1035 58.1523 24.541C57.5898 23.9785 57.1445 23.3223 56.8164 22.5723C56.5 21.8223 56.3418 21.0195 56.3418 20.1641V6.62891C56.3418 5.77344 56.5 4.9707 56.8164 4.2207C57.1445 3.4707 57.5898 2.81445 58.1523 2.25195C58.7148 1.68945 59.3711 1.25 60.1211 0.933594C60.8828 0.605469 61.6914 0.441406 62.5469 0.441406H64.3398C65.1953 0.441406 65.998 0.605469 66.748 0.933594C67.498 1.25 68.1543 1.68945 68.7168 2.25195C69.2793 2.81445 69.7188 3.4707 70.0352 4.2207C70.3633 4.9707 70.5273 5.77344 70.5273 6.62891V20.1641ZM68.2598 6.62891C68.2598 6.06641 68.1543 5.54492 67.9434 5.06445C67.7324 4.57227 67.4453 4.14453 67.082 3.78125C66.7188 3.41797 66.291 3.13086 65.7988 2.91992C65.3184 2.70898 64.7969 2.60352 64.2344 2.60352H62.6523C62.0898 2.60352 61.5625 2.70898 61.0703 2.91992C60.5898 3.13086 60.1621 3.41797 59.7871 3.78125C59.4238 4.14453 59.1367 4.57227 58.9258 5.06445C58.7148 5.54492 58.6094 6.06641 58.6094 6.62891V20.1641C58.6094 20.7266 58.7148 21.2539 58.9258 21.7461C59.1367 22.2266 59.4238 22.6543 59.7871 23.0293C60.1621 23.3926 60.5898 23.6797 61.0703 23.8906C61.5625 24.1016 62.0898 24.207 62.6523 24.207H64.2344C64.7969 24.207 65.3184 24.1016 65.7988 23.8906C66.291 23.6797 66.7188 23.3926 67.082 23.0293C67.4453 22.6543 67.7324 22.2266 67.9434 21.7461C68.1543 21.2539 68.2598 20.7266 68.2598 20.1641V6.62891Z" fill="white"/>
</svg>
